<svg width="48" height="48" viewBox="0 0 48 48" fill="none" xmlns="http://www.w3.org/2000/svg">
<path d="M24 48C37.2548 48 48 37.2548 48 24C48 10.7452 37.2548 0 24 0C10.7452 0 0 10.7452 0 24C0 37.2548 10.7452 48 24 48Z" fill="#D8D8D8"/>
<path d="M20.4643 32.466C20.9923 32.31 21.4663 32.028 21.8863 31.62C22.3063 31.224 22.6123 30.732 22.8043 30.144C22.9603 29.688 23.0623 29.16 23.1103 28.56C23.1583 27.948 23.1823 27.012 23.1823 25.752V17.76L21.4543 17.526V16.626H26.7463V17.526L25.1083 17.76V25.05V25.896C25.1083 26.844 25.0963 27.606 25.0723 28.182C25.0483 28.758 24.9943 29.25 24.9103 29.658C24.6943 30.618 24.2203 31.41 23.4883 32.034C22.7563 32.658 21.9103 33.054 20.9503 33.222L20.4643 32.466Z" fill="#364250"/>
</svg>
