<svg width="727" height="408" viewBox="0 0 727 408" fill="none" xmlns="http://www.w3.org/2000/svg" >
<path d="M0.5 407L174.736 339.483L317.112 219.254L589 96.5L726 1" stroke="url(#paint0_linear)"/>
<defs>
<linearGradient id="paint0_linear" x1="739" y1="-12.5" x2="182" y2="576.458" gradientUnits="userSpaceOnUse">
<stop stop-color="#EBF945" stop-opacity="0"/>
<stop offset="0.138122" stop-color="#EBF945"/>
<stop offset="0.856354" stop-color="#EBF945"/>
<stop offset="1" stop-color="#EBF945" stop-opacity="0"/>
</linearGradient>
</defs>
</svg>
