<svg viewBox="0 0 1360 83" fill="none" xmlns="http://www.w3.org/2000/svg">
<path d="M1360 82.9999L670 82.9999L0 82.9999L7.25608e-06 3.17534e-06C501.799 104.147 867.851 104.264 1360 4.19772L1360 82.9999Z" fill="#30353A" preserveAspectRatio="none"/>
</svg>
