<svg width="16" height="16" viewBox="0 0 16 16" fill="none" xmlns="http://www.w3.org/2000/svg">
<path d="M7.99987 0C3.58171 0 0 3.5818 0 7.99992C0 12.4179 3.58171 16 7.99987 16C12.418 16 16 12.4179 16 7.99992C16 3.58169 12.418 0 7.99987 0ZM8.02424 11.7741V11.774H7.97539H4.55816C4.55816 9.27503 6.75296 9.27561 7.24001 8.62217L7.29575 8.32419C6.61147 7.97741 6.12842 7.14135 6.12842 6.16353C6.12842 4.8753 6.96641 3.83081 7.99987 3.83081C9.03332 3.83081 9.87131 4.8753 9.87131 6.16353C9.87131 7.13303 9.39685 7.96387 8.72169 8.31614L8.78516 8.65475C9.31952 9.27652 11.4413 9.31705 11.4413 11.7741H8.02424Z" fill="#364250"/>
</svg>
